<svg width="70" height="69" viewBox="0 0 70 69" fill="none" xmlns="http://www.w3.org/2000/svg">
<circle cx="37.5" cy="36" r="32.5" fill="#F2F5FF"/>
<path d="M57.265 46.8561V42.7654C57.265 42.0117 56.6552 41.4018 55.9017 41.4018C55.1482 41.4018 54.5385 42.0117 54.5385 42.7654V42.8061C52.081 38.9966 49.4076 35.584 47.9432 33.789C47.468 33.2043 46.6092 33.1138 46.0261 33.5945C45.4416 34.0699 45.355 34.9289 45.8318 35.5121C48.4917 38.7732 50.5943 41.6661 52.2347 44.1987C51.5143 43.9677 50.7552 44.3503 50.5193 45.0611C50.2809 45.7762 50.667 46.5485 51.3806 46.7856L54.3938 47.7903C57.3964 53.2527 57.7253 56.413 56.8189 57.3189C55.8523 58.2842 52.3031 57.9499 45.4881 53.8391C41.358 51.348 36.7588 47.9087 32.0582 43.8355C33.9884 42.0899 35.9236 40.2521 37.8398 38.3351C44.6742 31.4993 50.5207 24.433 54.5384 18.2057V18.221C54.5384 18.9747 55.1479 19.5847 55.9015 19.5847C56.6552 19.5847 57.2648 18.9747 57.2648 18.221V14.1302C57.2648 14.0024 57.2118 13.8878 57.1776 13.7678C60.3094 7.87112 60.8386 3.83071 58.7465 1.73936C54.6914 -2.31538 43.9692 4.51044 37.9383 8.94076C37.3312 9.38552 37.201 10.2391 37.6469 10.8464C38.0901 11.4508 38.9436 11.5813 39.5518 11.138C49.3489 3.94308 55.3743 2.22004 56.8188 3.66745C57.695 4.54406 57.4723 7.57095 54.3623 13.2064L51.3803 14.2007C50.6667 14.4377 50.2806 15.2101 50.519 15.925C50.752 16.6268 51.4947 17.0061 52.2067 16.7911C48.2962 22.8417 42.592 29.724 35.9121 36.4069C33.9502 38.3687 31.9711 40.2403 29.9998 42.0158C28.0284 40.2403 26.0494 38.3689 24.0875 36.4069C17.4077 29.724 11.7035 22.8418 7.79294 16.7911C8.50488 17.0061 9.24764 16.6268 9.48057 15.925C9.71899 15.2101 9.33291 14.4377 8.6193 14.2007L5.63728 13.2064C2.52755 7.57108 2.30485 4.54406 3.18108 3.66758C4.62964 2.21889 10.6563 3.94461 20.4615 11.1488C21.0658 11.5935 21.9218 11.4629 22.3664 10.8572C22.8123 10.2513 22.6821 9.39767 22.0749 8.95163C16.0414 4.51453 5.30592 -2.31934 1.25349 1.73948C-0.838626 3.83071 -0.309365 7.87112 2.82235 13.7678C2.78822 13.8878 2.73517 14.0024 2.73517 14.1302V18.221C2.73517 18.9747 3.34497 19.5847 4.09846 19.5847C4.85196 19.5847 5.46163 18.9747 5.46163 18.221V18.2057C9.47929 24.433 15.3258 31.4993 22.1602 38.3351C24.0766 40.2521 26.0116 42.0899 27.9418 43.8355C23.2411 47.9087 18.642 51.3482 14.5119 53.8391C7.69041 57.9526 4.14244 58.2788 3.18108 57.3189C2.27532 56.4128 2.60413 53.2522 5.60686 47.7901L8.61943 46.7856C9.33304 46.5486 9.71912 45.7762 9.4807 45.0611C9.24483 44.3508 8.48648 43.9682 7.76648 44.1985C9.39964 41.6774 11.4897 38.7996 14.1336 35.5561C14.609 34.9728 14.5211 34.1139 13.938 33.6372C13.3562 33.1632 12.4975 33.2537 12.0195 33.8329C10.563 35.6201 7.90659 39.0134 5.4615 42.8044V42.7654C5.4615 42.0117 4.85196 41.4018 4.09834 41.4018C3.34471 41.4018 2.73504 42.0117 2.73504 42.7654V46.8562C2.73504 47.0027 2.79052 47.1357 2.83514 47.2713C0.278704 52.1066 -1.14302 56.8511 1.25349 59.2469C2.08944 60.0833 3.23566 60.5 4.68819 60.5C7.38794 60.5 11.1451 59.0552 15.9202 56.1749C20.2568 53.558 25.0846 49.934 29.9999 45.6537C34.9153 49.9341 39.7432 53.558 44.0797 56.1749C48.8549 59.0565 52.6119 60.5013 55.3131 60.5C56.7643 60.5 57.9106 60.0833 58.7465 59.2469C61.1429 56.8512 59.7226 52.1087 57.1649 47.2717C57.2095 47.1358 57.265 47.0026 57.265 46.8561ZM16.3637 18.2273C16.3637 18.981 16.9736 19.5909 17.7273 19.5909C18.4811 19.5909 19.091 18.981 19.091 18.2273C19.091 17.4749 19.7022 16.8636 20.4547 16.8636C21.207 16.8636 21.8184 17.4748 21.8184 18.2273C21.8184 18.9796 21.2072 19.5909 20.4547 19.5909C19.7009 19.5909 19.091 20.2009 19.091 20.9546C19.091 21.7084 19.7009 22.3183 20.4547 22.3183C21.207 22.3183 21.8184 22.9295 21.8184 23.682C21.8184 24.4343 21.2072 25.0457 20.4547 25.0457C19.7023 25.0457 19.091 24.4344 19.091 23.682C19.091 22.9282 18.4811 22.3183 17.7273 22.3183C16.9736 22.3183 16.3637 22.9282 16.3637 23.682C16.3637 25.9379 18.1987 27.7729 20.4546 27.7729C22.7104 27.7729 24.5455 25.9379 24.5455 23.682C24.5455 22.6352 24.1499 21.6791 23.5014 20.9547C24.1499 20.2303 24.5455 19.2741 24.5455 18.2275C24.5455 15.9716 22.7104 14.1366 20.4546 14.1366C18.1987 14.1366 16.3637 15.9714 16.3637 18.2273ZM39.5456 27.7728C41.8014 27.7728 43.6365 25.9377 43.6365 23.6818V18.2273C43.6365 15.9714 41.8014 14.1363 39.5456 14.1363C37.2897 14.1363 35.4547 15.9714 35.4547 18.2273V23.6818C35.4547 25.9376 37.2897 27.7728 39.5456 27.7728ZM38.1819 18.2273C38.1819 17.4749 38.7931 16.8636 39.5456 16.8636C40.298 16.8636 40.9091 17.4749 40.9091 18.2273V23.6818C40.9091 24.4342 40.2979 25.0455 39.5454 25.0455C38.793 25.0455 38.1818 24.4343 38.1818 23.6818V18.2273H38.1819ZM30.0001 27.7728C32.2559 27.7728 34.091 25.9377 34.091 23.6818C34.091 21.426 32.2559 19.5909 30.0001 19.5909C29.5811 19.5909 29.1846 19.6726 28.8037 19.7902C29.1118 18.5492 30.015 16.8636 32.7273 16.8636C33.481 16.8636 34.091 16.2536 34.091 15.4999C34.091 14.7462 33.481 14.1362 32.7273 14.1362C27.3341 14.1362 25.9092 18.596 25.9092 20.9544V23.6816C25.9092 25.9376 27.7442 27.7728 30.0001 27.7728ZM30.0001 22.3182C30.7524 22.3182 31.3637 22.9294 31.3637 23.6818C31.3637 24.4342 30.7525 25.0455 30.0001 25.0455C29.2477 25.0455 28.6364 24.4343 28.6364 23.6818C28.6364 22.9294 29.2477 22.3182 30.0001 22.3182ZM49.0909 14.1363C49.0909 12.6329 47.8671 11.4091 46.3637 11.4091C44.8603 11.4091 43.6365 12.6329 43.6365 14.1363C43.6365 15.6398 44.8603 16.8636 46.3637 16.8636C47.8671 16.8636 49.0909 15.6398 49.0909 14.1363Z" fill="#0A1F69"/>
</svg>
