<svg width="58" height="114" viewBox="0 0 58 114" fill="none" xmlns="http://www.w3.org/2000/svg">
<path d="M54.5335 97.255C53.702 100.976 51.4048 104.696 50.7988 106.514C50.0096 108.882 39.7427 110.087 29.2996 110.136C29.1939 110.136 29.0953 110.136 28.9896 110.136C28.8839 110.136 28.7852 110.136 28.6795 110.136C18.2365 110.087 7.96957 108.882 7.18035 106.514C6.57434 104.696 4.2701 100.976 3.44565 97.255L2.7269 99.221C3.42451 103.238 6.02471 107.395 6.68004 109.361C7.4904 111.785 17.9898 113.018 28.6725 113.06C28.7782 113.06 28.8839 113.06 28.9896 113.06C29.0953 113.06 29.201 113.06 29.3067 113.06C39.9893 113.011 50.4887 111.778 51.2991 109.354C51.9544 107.381 54.5546 103.23 55.2522 99.2139L54.5335 97.2479V97.255Z" fill="#160302"/>
<path d="M6.30663 32.0951C7.65253 25.2599 10.2386 11.8713 10.2386 11.8713L10.288 11.7304C11.9439 6.12836 27.087 5.0291 28.8276 5.08547C28.8839 5.08547 28.9333 5.08547 28.9896 5.08547C29.046 5.08547 29.0953 5.08547 29.1517 5.08547C30.8852 5.0291 46.0353 6.12836 47.6913 11.7304L47.7406 11.8713C47.7406 11.8713 50.3197 25.2528 51.6726 32.0951C54.5265 27.2752 55.203 21.4759 53.5611 16.1204C52.2786 11.9348 51.0807 8.97519 51.0807 8.97519L51.0173 8.81312C49.0654 2.2175 31.2234 0.920929 29.1799 0.984348C29.1165 0.984348 29.053 0.984348 28.9896 0.984348C28.9262 0.984348 28.8628 0.984348 28.7994 0.984348C26.7559 0.920929 8.91387 2.2175 6.95492 8.81312L6.8915 8.97519C6.8915 8.97519 5.69358 11.9277 4.4111 16.1204C2.76924 21.4759 3.44571 27.2752 6.29958 32.0951H6.30663Z" fill="#160302"/>
<path d="M55.0126 70.3581L53.6879 66.3627L53.0396 48.5559C52.9621 43.6022 53.0466 41.8405 53.2017 37.373C53.2228 36.7881 54.7308 33.7863 54.7519 33.2155C55.1324 23.5969 49.5797 9.87012 49.5797 9.87012L49.5233 9.72214C47.7053 3.57046 31.0683 2.35845 29.1657 2.42187C29.1023 2.42187 29.0459 2.42187 28.9895 2.42187C28.9332 2.42187 28.8698 2.42187 28.8134 2.42187C26.9038 2.35845 10.2738 3.57046 8.44871 9.72214L8.39234 9.87012C8.39234 9.87012 2.83962 23.5969 3.22014 33.2155C3.24128 33.7863 4.74925 36.7881 4.77039 37.373C4.92541 41.8405 5.00997 43.6022 4.93246 48.5559L4.29122 66.257L2.95941 70.2595V93.8162L3.21309 95.9302V95.9795C3.7134 100.095 6.50385 104.485 7.17328 106.507C7.9625 108.875 18.2294 110.08 28.6724 110.129C28.7781 110.129 28.8768 110.129 28.9825 110.129C29.0882 110.129 29.1868 110.129 29.2925 110.129C39.7356 110.08 50.0025 108.875 50.7917 106.507C51.4682 104.478 54.2516 100.095 54.7519 95.9795V95.9302L55.0056 93.9149V70.3581H55.0126Z" fill="#17347A"/>
<path d="M45.8168 47.795L26.0018 27.9799C24.7898 12.8016 31.9843 6.36803 39.1226 3.68328C34.5845 2.66857 30.1029 2.3867 29.1657 2.42194C29.1023 2.42194 29.0459 2.42194 28.9895 2.42194C28.9332 2.42194 28.8698 2.42194 28.8134 2.42194C26.9038 2.35852 10.2738 3.57053 8.44871 9.72221L8.39234 9.87019C8.39234 9.87019 2.83962 23.597 3.22014 33.2156C3.24128 33.7863 4.74925 36.7882 4.77039 37.3731C4.92541 41.8406 5.00997 43.6023 4.93246 48.556L4.29122 66.2571L2.95941 70.2595V93.8163L3.21309 95.9303V95.9796C3.64293 99.5029 5.74282 103.216 6.76458 105.485C9.08291 100.003 12.268 92.1674 12.268 92.1674L12.8881 51.276C20.139 52.9742 28.6302 52.6642 28.6302 52.6642C45.6054 52.8192 45.8239 47.7879 45.8239 47.7879L45.8168 47.795Z" fill="#1E4084"/>
<path d="M43.9213 10.8637L49.0583 18.9673L51.0031 22.0396C49.6572 17.0788 48.0929 13.2173 48.0929 13.2173L48.0436 13.0763C47.4939 11.2231 45.4856 9.85605 42.9771 8.84839C43.2096 9.55305 43.5196 10.2295 43.9142 10.8637H43.9213Z" fill="#C1D1D0"/>
<path d="M14.0508 10.8637C14.4524 10.2366 14.7555 9.55305 14.988 8.84839C12.4724 9.84901 10.4711 11.216 9.92149 13.0763L9.87216 13.2173C9.87216 13.2173 8.30781 17.0788 6.96191 22.0396L14.0508 10.8637Z" fill="#C1D1D0"/>
<path d="M14.4102 10.2225C14.6427 9.77854 14.833 9.32051 14.988 8.84839C12.4724 9.84901 10.4711 11.216 9.92151 13.0763L9.87218 13.2173C9.87218 13.2173 9.40006 14.387 8.75177 16.2544C9.22389 16.1134 9.66078 15.8809 10.0554 15.5286C11.4154 14.3165 13.1488 12.2589 14.4102 10.2225Z" fill="#DFF3F4"/>
<path d="M43.562 10.2225C44.8233 12.266 46.5638 14.3165 47.9167 15.5286C48.3114 15.8809 48.7482 16.1064 49.2204 16.2544C48.5721 14.38 48.1 13.2173 48.1 13.2173L48.0506 13.0763C47.501 11.2231 45.4927 9.85605 42.9841 8.84839C43.1392 9.32051 43.3294 9.78559 43.562 10.2225Z" fill="#DFF3F4"/>
<path d="M45.3729 106.655C39.0521 107.578 33.1189 107.578 28.9826 107.578C24.8462 107.578 18.913 107.578 12.5922 106.655C7.37065 105.894 8.97727 104.097 8.97727 104.097L12.3455 97.6073C18.3633 98.8052 39.5877 98.8052 45.6055 97.6073L48.9738 104.097C48.9738 104.097 50.5874 105.894 45.3589 106.655H45.3729Z" fill="#373637"/>
<path d="M28.9896 107.656C24.9871 107.656 18.9482 107.656 12.5922 106.733C10.3161 106.401 9.01955 105.838 8.73769 105.048C8.55448 104.534 8.87862 104.125 8.92795 104.055L12.3174 97.5227L12.3737 97.5368C18.4268 98.7488 39.5454 98.7488 45.6055 97.5368L45.6619 97.5227L45.69 97.572L49.0583 104.055C49.1147 104.118 49.4388 104.534 49.2486 105.048C48.9667 105.838 47.6701 106.401 45.3941 106.733C39.0381 107.656 32.9921 107.656 28.9967 107.656H28.9896ZM12.4019 97.6989L9.04774 104.154C9.04774 104.154 8.7095 104.541 8.87862 104.999C9.06183 105.499 9.8581 106.183 12.6133 106.585C18.9623 107.508 24.9942 107.508 28.9896 107.508C32.985 107.508 39.024 107.508 45.3659 106.585C48.1211 106.183 48.9174 105.499 49.1006 104.999C49.2697 104.534 48.9385 104.161 48.9315 104.154L48.9174 104.139L45.5773 97.6989C39.4538 98.8968 18.5254 98.8968 12.4019 97.6989Z" fill="#160302"/>
<path d="M44.6753 105.774C38.6223 106.627 32.9427 106.641 28.9896 106.641C25.0365 106.641 19.3499 106.627 13.3039 105.774C8.30079 105.07 9.84399 103.407 9.84399 103.407L12.8177 97.861C19.223 98.9532 38.7562 98.9532 45.1545 97.861L48.1282 103.407C48.1282 103.407 49.6714 105.07 44.6683 105.774H44.6753Z" fill="#DFF3F4"/>
<path d="M48.1282 103.407L47.8674 102.92C47.346 102.765 46.6907 102.624 45.8662 102.512C39.3551 101.596 33.2457 101.582 28.9826 101.582C24.7194 101.582 18.61 101.596 12.0989 102.512C11.2745 102.624 10.6191 102.765 10.0977 102.92L9.83694 103.407C9.83694 103.407 8.29374 105.07 13.2968 105.774C19.3499 106.627 25.0294 106.641 28.9826 106.641C32.9357 106.641 38.6223 106.627 44.6683 105.774C49.6714 105.07 48.1282 103.407 48.1282 103.407Z" fill="#C1D1D0"/>
<path d="M35.8953 109.03L35.8741 108.988L35.8389 108.931L35.7473 108.769C35.5571 108.713 35.3245 108.67 35.0567 108.628C32.6609 108.29 30.406 108.29 28.9192 108.29C27.4323 108.29 25.1774 108.29 22.7816 108.628C22.5138 108.663 22.2883 108.713 22.091 108.769L22.0135 108.917C22.0135 108.917 21.9853 108.952 21.9712 108.981L21.9501 109.023H21.9007C18.2717 108.868 15.0162 108.537 11.9509 108.022C9.66785 107.635 8.33604 106.986 7.98371 106.084C7.71594 105.394 8.13874 104.837 8.15283 104.816L11.9791 97.3396C12.0919 97.1141 12.4301 96.9872 12.7543 97.0577C19.2724 98.3684 38.6787 98.3684 45.1968 97.0577C45.5209 96.9943 45.8592 97.1141 45.9719 97.3396L49.8053 104.816C49.8546 104.879 50.2281 105.422 49.9744 106.077C49.6221 106.979 48.2832 107.628 46.0072 108.015C42.9137 108.537 39.6159 108.868 35.9376 109.023H35.8882L35.8953 109.03ZM35.9658 108.847C35.9658 108.847 35.9728 108.861 35.9869 108.875C39.6441 108.72 42.9137 108.396 45.9931 107.874C48.7624 107.402 49.615 106.613 49.8476 106.035C50.0871 105.429 49.6996 104.922 49.6996 104.915V104.901L45.8521 97.4171C45.7676 97.255 45.4928 97.1634 45.2391 97.2127C38.7069 98.5234 19.2653 98.5234 12.7331 97.2127C12.4794 97.1634 12.2046 97.255 12.1201 97.4171L8.28672 104.901C8.28672 104.901 7.89211 105.429 8.13169 106.035C8.35718 106.613 9.21687 107.409 11.9862 107.874C15.0303 108.389 18.2647 108.713 21.8655 108.868C21.8796 108.847 21.8937 108.833 21.8937 108.833L21.9923 108.642H22.0205C22.2249 108.572 22.4715 108.523 22.7604 108.48C25.1704 108.142 27.4253 108.142 28.9192 108.142C30.413 108.142 32.6679 108.142 35.0779 108.48C35.3668 108.523 35.6134 108.572 35.8178 108.628H35.846L35.9517 108.84L35.9658 108.847Z" fill="#160302"/>
<path d="M45.3166 26.8032C39.0169 24.513 33.1119 24.4778 28.9826 24.4778C24.8533 24.4778 18.9482 24.513 12.6486 26.8032C7.44113 28.6987 9.04775 32.8844 9.04775 32.8844L12.1483 47.7879C13.7478 52.939 44.161 52.8262 45.8099 47.7879L48.9104 32.8844C48.9104 32.8844 50.517 28.6987 45.3095 26.8032H45.3166Z" fill="#160302"/>
<path d="M44.6753 29.0792C38.6223 27.0427 32.9427 27.0145 28.9896 27.0145C25.0364 27.0145 19.3498 27.0427 13.3038 29.0792C8.30076 30.7633 9.84396 34.7376 9.84396 34.7376L12.8176 47.9922C14.3538 52.5725 43.569 52.4668 45.1545 47.9922L48.1281 34.7376C48.1281 34.7376 49.6713 30.7633 44.6683 29.0792H44.6753Z" fill="#DFF3F4"/>
<path d="M44.6753 29.0792C38.6223 27.0427 32.9427 27.0145 28.9896 27.0145C25.0364 27.0145 19.3498 27.0427 13.3038 29.0792C8.30076 30.7633 9.84396 34.7376 9.84396 34.7376L10.3654 37.0489C10.8728 37.4083 11.514 37.7324 12.2962 38.0002C12.3314 38.9233 12.4583 39.783 12.7401 40.5299C12.1693 40.6356 11.6549 40.7554 11.2321 40.8963L11.7606 43.2428C13.2193 43.6234 15.3403 43.87 17.7009 43.87C22.1121 43.87 25.6847 43.0314 25.6847 41.9956C25.6847 41.4037 24.515 40.8752 22.6829 40.5369C22.7463 40.389 22.7956 40.241 22.8449 40.093C25.3394 40.2903 27.5943 40.2974 29.4899 40.2974C33.8094 40.2974 39.9964 40.2692 46.599 38.0425C46.9161 37.9368 47.205 37.817 47.4728 37.6972L48.1352 34.7446C48.1352 34.7446 49.6784 30.7704 44.6753 29.0862V29.0792Z" fill="#C1D1D0"/>
<path d="M6.10921 33.7792C6.1233 33.2789 6.8632 33.2014 6.99708 33.6806C8.54733 39.3037 11.8381 51.29 11.824 51.8185L10.76 92.428C10.7318 93.6823 9.49862 94.2813 8.95604 93.2032C8.95604 93.2032 5.36932 83.4718 5.35522 80.3431L6.10921 33.7792Z" fill="#17347A"/>
<path d="M9.72417 93.8443C9.38594 93.8443 9.08293 93.6259 8.88563 93.2383C8.84335 93.1326 5.29186 83.4506 5.27777 80.3431L6.03176 33.7791C6.0388 33.4761 6.27134 33.3141 6.49683 33.2859C6.71528 33.2577 6.99009 33.3634 7.07465 33.6593C8.88563 40.2127 11.9227 51.297 11.9016 51.8184L10.8375 92.428C10.8164 93.2102 10.3513 93.7175 9.90739 93.8162C9.84397 93.8303 9.78759 93.8373 9.72417 93.8373V93.8443ZM6.18678 33.7862L5.4328 80.3501C5.44689 83.4295 8.99133 93.0833 9.02656 93.182C9.22387 93.5695 9.52687 93.7527 9.86511 93.6752C10.2527 93.5907 10.6614 93.1326 10.6755 92.435L11.7395 51.8255C11.7536 51.4591 9.94967 44.6873 6.91963 33.7087C6.86326 33.4973 6.673 33.4268 6.51093 33.448C6.36295 33.462 6.18678 33.5677 6.17974 33.7932L6.18678 33.7862Z" fill="#160302"/>
<path d="M6.75751 34.822L10.8304 50.1624C10.9855 50.7473 11.0559 51.3462 11.0348 51.9452L9.87915 91.7303C9.86506 92.294 6.79274 84.1129 6.79274 82.3935L6.75751 34.8079V34.822Z" fill="#373637"/>
<path d="M9.87217 91.8431C9.62554 91.8431 8.33601 88.1506 8.18803 87.7278C7.75114 86.4665 6.72234 83.4153 6.72234 82.4006L6.6871 34.223L10.908 50.1413C11.063 50.7332 11.1335 51.3392 11.1194 51.9452L9.96377 91.7303C9.96377 91.8149 9.9074 91.836 9.87217 91.836V91.8431ZM6.83508 35.4139L6.87031 82.4006C6.87031 83.9297 9.26616 90.3421 9.80875 91.5189L10.9573 51.9452C10.9714 51.3463 10.908 50.7543 10.753 50.1836L6.83508 35.4139Z" fill="#160302"/>
<path d="M9.70307 82.5698L10.5205 52.3046C10.5346 51.7409 10.4782 51.1772 10.3443 50.6275L7.25085 37.6759L7.31427 75.4245C7.31427 77.4399 7.84982 79.427 8.86453 81.1675C9.13934 81.6396 9.42121 82.1188 9.70307 82.5768V82.5698Z" fill="#C1D1D0"/>
<path d="M9.70304 82.5698L10.5204 52.3046C10.5345 51.7409 10.4782 51.1772 10.3443 50.6275L9.69599 47.9005C8.25144 54.0592 7.3847 61.9585 7.3847 70.5765C7.3847 73.0921 7.46222 75.5514 7.60315 77.9261C7.85683 79.0606 8.27962 80.1528 8.87154 81.1675C9.14635 81.6396 9.42822 82.1188 9.71008 82.5768L9.70304 82.5698Z" fill="#DFF3F4"/>
<path d="M6.75049 69.3011C6.87028 70.6752 9.42819 75.2554 10.4147 76.0728L10.5275 72.2043C9.7312 70.4638 7.18033 67.2787 6.74344 65.5593L6.75753 69.294L6.75049 69.3011Z" fill="#160302"/>
<path d="M6.7928 34.8502C6.7928 34.8502 0.373348 38.3383 0.373348 39.4587C0.373348 40.5791 -0.00012207 43.2075 -0.00012207 43.2075L5.2355 41.3472L7.66658 38.0705L6.78575 34.8502H6.7928Z" fill="#160302"/>
<path d="M5.62918 66.4665L5.49713 66.5477L10.3844 74.4949L10.5164 74.4137L5.62918 66.4665Z" fill="#160302"/>
<path d="M51.8629 33.8778C51.8488 33.3775 51.1089 33.3 50.975 33.7792C49.4248 39.4024 46.134 51.3886 46.1481 51.9171L47.2122 92.5267C47.2403 93.781 48.4735 94.3799 49.0161 93.3018C49.0161 93.3018 52.6028 83.5705 52.6169 80.4418L51.8629 33.8778Z" fill="#17347A"/>
<path d="M48.2479 93.943C48.1916 93.943 48.1282 93.943 48.0647 93.9219C47.6138 93.8232 47.1487 93.3159 47.1275 92.5337L46.0705 51.9241C46.0494 51.3957 49.0865 40.3184 50.8975 33.7651C50.975 33.4691 51.2568 33.3634 51.4753 33.3916C51.7008 33.4198 51.9333 33.5818 51.9404 33.8849L52.6943 80.4488C52.6803 83.5563 49.1217 93.2383 49.0865 93.337C48.8892 93.7316 48.5862 93.95 48.2479 93.95V93.943ZM51.4119 33.5325C51.2639 33.5325 51.1018 33.61 51.0525 33.8003C48.0225 44.7789 46.2185 51.5507 46.2326 51.9171L47.2896 92.5337C47.3107 93.2313 47.7124 93.6893 48.1 93.7739C48.4382 93.8514 48.7483 93.6682 48.9456 93.2736C48.9808 93.182 52.5252 83.5281 52.5393 80.4488L51.7853 33.8849C51.7783 33.6594 51.6021 33.5607 51.4541 33.5466C51.4401 33.5466 51.4189 33.5466 51.4048 33.5466L51.4119 33.5325Z" fill="#160302"/>
<path d="M51.2145 34.9207L47.1416 50.2612C46.9866 50.846 46.9161 51.445 46.9373 52.0439L48.0929 91.829C48.107 92.3928 51.1793 84.2117 51.1793 82.4923L51.2145 34.9066V34.9207Z" fill="#373637"/>
<path d="M48.1 91.9418C48.1 91.9418 48.0154 91.9207 48.0083 91.8361L46.8598 52.051C46.8457 51.438 46.9091 50.832 47.0712 50.24L51.2921 34.3218V34.9137L51.2568 82.4923C51.2568 83.507 50.228 86.5582 49.7911 87.8195C49.6432 88.2423 48.3536 91.9277 48.107 91.9348L48.1 91.9418ZM51.137 35.5127L47.2191 50.2823C47.0641 50.8601 47.0007 51.4521 47.0148 52.044L48.1634 91.6177C48.713 90.4479 51.1018 84.0285 51.1018 82.4994L51.137 35.5127Z" fill="#160302"/>
<path d="M48.2691 82.6615L47.4517 52.3963C47.4376 51.8326 47.494 51.2689 47.6279 50.7192L50.7213 37.7676L50.6579 75.5162C50.6579 77.5315 50.1224 79.5187 49.1076 81.2592C48.8328 81.7313 48.551 82.2105 48.2691 82.6685V82.6615Z" fill="#C1D1D0"/>
<path d="M48.2691 82.5698L47.4517 52.3046C47.4376 51.7409 47.494 51.1772 47.6279 50.6275L48.2761 47.9005C49.7207 54.0592 50.5874 61.9585 50.5874 70.5765C50.5874 73.0921 50.5099 75.5514 50.369 77.9261C50.1153 79.0606 49.6925 80.1528 49.1006 81.1675C48.8258 81.6396 48.5439 82.1188 48.2621 82.5768L48.2691 82.5698Z" fill="#DFF3F4"/>
<path d="M51.2217 69.3998C51.1019 70.7739 48.544 75.3542 47.5574 76.1716L47.4447 72.303C48.241 70.5625 50.7918 67.3775 51.2287 65.6581L51.2146 69.3928L51.2217 69.3998Z" fill="#160302"/>
<path d="M51.1864 34.9489C51.1864 34.9489 57.6058 38.4299 57.6058 39.5573C57.6058 40.6848 57.9793 43.3061 57.9793 43.3061L52.7437 41.4458L50.3126 38.1691L51.1934 34.9489H51.1864Z" fill="#160302"/>
<path d="M52.342 66.5611L47.4576 74.51L47.5897 74.5912L52.4741 66.6423L52.342 66.5611Z" fill="#160302"/>
<path d="M7.87093 29.7697L7.80047 29.509C7.26492 27.4584 6.55322 24.6821 6.25021 23.0754V23.0472L6.25726 23.0191L13.9803 10.8425C14.6498 9.78555 15.0866 8.62286 15.2699 7.38266L15.5024 5.82536L15.5376 5.80422C15.5729 5.78308 19.3428 3.95097 27.3971 3.38019C27.5944 3.35905 27.7987 3.34496 28.0242 3.33791H28.1158C28.1158 3.33791 28.3906 3.31677 28.7852 3.31677H28.9684H29.1446C29.5533 3.31677 29.8211 3.33087 29.8211 3.33087H29.9127C30.1382 3.35201 30.3425 3.3661 30.5398 3.38019C38.5871 3.95097 42.364 5.78308 42.3993 5.80422L42.4345 5.82536L42.667 7.38266C42.8573 8.62286 43.2871 9.78555 43.9566 10.8425L51.7008 23.0472V23.0754C51.3837 24.6821 50.679 27.4584 50.1435 29.509L50.073 29.7697L49.9955 29.516C49.5093 27.9799 48.2338 26.8454 46.2044 26.1337C39.5243 23.8083 33.1682 23.8083 28.9614 23.8083C24.7546 23.8083 18.3985 23.8083 11.7184 26.1337C9.68895 26.8383 8.41352 27.9799 7.9273 29.516L7.84979 29.7697H7.87093ZM28.9896 23.6603C33.2035 23.6603 39.5806 23.6603 46.2819 25.9927C48.255 26.6762 49.5304 27.7685 50.0871 29.2271C50.6086 27.2259 51.2709 24.6257 51.5669 23.0825L43.8579 10.9271C43.1744 9.84897 42.7305 8.67219 42.5402 7.41085L42.3147 5.93811C41.913 5.74785 38.1502 4.08485 30.5469 3.54226C30.3496 3.52112 30.1452 3.50703 29.9197 3.49998H29.8281C29.8281 3.49998 29.5604 3.47884 29.1658 3.47884H28.9825H28.8134C28.4118 3.47884 28.144 3.49294 28.1369 3.49294H28.0453C27.8199 3.51408 27.6155 3.52817 27.4252 3.54226C19.822 4.08485 16.0591 5.74785 15.6574 5.93811L15.4319 7.41085C15.2417 8.67219 14.7977 9.85602 14.1142 10.9271L6.40524 23.0825C6.7012 24.6186 7.36358 27.2188 7.88502 29.2271C8.44171 27.7614 9.71714 26.6762 11.6902 25.9927C18.3915 23.6603 24.7687 23.6603 28.9825 23.6603H28.9896Z" fill="#160302"/>
</svg>
