<?xml version="1.0" encoding="UTF-8" standalone="no"?>
<svg
   width="48"
   height="48"
   viewBox="0 0 12.7 12.7"
   version="1.1"
   id="svg1"
   xmlns="http://www.w3.org/2000/svg"
   xmlns:svg="http://www.w3.org/2000/svg">
  <defs
     id="defs1" />
  <path
     d="M-3.007-.005a5.978 5.978 0 0 1-5.979 5.978V-.005z"
     style="fill:#1a237e;fill-opacity:1;stroke:#fff;stroke-width:0.661458;stroke-miterlimit:4;stroke-dasharray:none;stroke-opacity:1"
     transform="rotate(-135)"
     id="path1" />
  <circle
     cx="6.35"
     cy="6.545"
     r="2.64"
     style="fill:#1e88e5;fill-opacity:1;stroke:#fff;stroke-width:0.660027;stroke-miterlimit:4;stroke-dasharray:none;stroke-opacity:1"
     id="circle1" />
</svg>
