{
    "id": "08d2cdee-0ab0-40fa-91ff-0bf960316677",
    "realm": "geovisio",
    "displayName": "",
    "displayNameHtml": "",
    "notBefore": 0,
    "defaultSignatureAlgorithm": "RS256",
    "revokeRefreshToken": false,
    "refreshTokenMaxReuse": 0,
    "accessTokenLifespan": 300,
    "accessTokenLifespanForImplicitFlow": 900,
    "ssoSessionIdleTimeout": 1800,
    "ssoSessionMaxLifespan": 36000,
    "ssoSessionIdleTimeoutRememberMe": 0,
    "ssoSessionMaxLifespanRememberMe": 0,
    "offlineSessionIdleTimeout": 2592000,
    "offlineSessionMaxLifespanEnabled": false,
    "offlineSessionMaxLifespan": 5184000,
    "clientSessionIdleTimeout": 0,
    "clientSessionMaxLifespan": 0,
    "clientOfflineSessionIdleTimeout": 0,
    "clientOfflineSessionMaxLifespan": 0,
    "accessCodeLifespan": 60,
    "accessCodeLifespanUserAction": 300,
    "accessCodeLifespanLogin": 1800,
    "actionTokenGeneratedByAdminLifespan": 43200,
    "actionTokenGeneratedByUserLifespan": 300,
    "oauth2DeviceCodeLifespan": 600,
    "oauth2DevicePollingInterval": 5,
    "enabled": true,
    "sslRequired": "external",
    "registrationAllowed": true,
    "registrationEmailAsUsername": false,
    "rememberMe": true,
    "verifyEmail": false,
    "loginWithEmailAllowed": true,
    "duplicateEmailsAllowed": false,
    "resetPasswordAllowed": true,
    "editUsernameAllowed": true,
    "bruteForceProtected": false,
    "permanentLockout": false,
    "maxFailureWaitSeconds": 900,
    "minimumQuickLoginWaitSeconds": 60,
    "waitIncrementSeconds": 60,
    "quickLoginCheckMilliSeconds": 1000,
    "maxDeltaTimeSeconds": 43200,
    "failureFactor": 30,
    "defaultRole": {
        "id": "21cc1ae9-0832-4e9a-a3c5-4f97e67f3bd3",
        "name": "default-roles-geovisio",
        "description": "${role_default-roles}",
        "composite": true,
        "clientRole": false,
        "containerId": "08d2cdee-0ab0-40fa-91ff-0bf960316677"
    },
    "requiredCredentials": [
        "password"
    ],
    "otpPolicyType": "totp",
    "otpPolicyAlgorithm": "HmacSHA1",
    "otpPolicyInitialCounter": 0,
    "otpPolicyDigits": 6,
    "otpPolicyLookAheadWindow": 1,
    "otpPolicyPeriod": 30,
    "otpPolicyCodeReusable": false,
    "otpSupportedApplications": [
        "totpAppGoogleName",
        "totpAppFreeOTPName"
    ],
    "webAuthnPolicyRpEntityName": "keycloak",
    "webAuthnPolicySignatureAlgorithms": [
        "ES256"
    ],
    "webAuthnPolicyRpId": "",
    "webAuthnPolicyAttestationConveyancePreference": "not specified",
    "webAuthnPolicyAuthenticatorAttachment": "not specified",
    "webAuthnPolicyRequireResidentKey": "not specified",
    "webAuthnPolicyUserVerificationRequirement": "not specified",
    "webAuthnPolicyCreateTimeout": 0,
    "webAuthnPolicyAvoidSameAuthenticatorRegister": false,
    "webAuthnPolicyAcceptableAaguids": [],
    "webAuthnPolicyPasswordlessRpEntityName": "keycloak",
    "webAuthnPolicyPasswordlessSignatureAlgorithms": [
        "ES256"
    ],
    "webAuthnPolicyPasswordlessRpId": "",
    "webAuthnPolicyPasswordlessAttestationConveyancePreference": "not specified",
    "webAuthnPolicyPasswordlessAuthenticatorAttachment": "not specified",
    "webAuthnPolicyPasswordlessRequireResidentKey": "not specified",
    "webAuthnPolicyPasswordlessUserVerificationRequirement": "not specified",
    "webAuthnPolicyPasswordlessCreateTimeout": 0,
    "webAuthnPolicyPasswordlessAvoidSameAuthenticatorRegister": false,
    "webAuthnPolicyPasswordlessAcceptableAaguids": [],
    "scopeMappings": [
        {
            "clientScope": "offline_access",
            "roles": [
                "offline_access"
            ]
        }
    ],
    "clientScopeMappings": {
        "account": [
            {
                "client": "account-console",
                "roles": [
                    "manage-account",
                    "view-groups"
                ]
            }
        ]
    },
    "clients": [
        {
            "id": "ad1453f0-3e2c-4eb8-8df6-e910ed9925ce",
            "clientId": "account",
            "name": "${client_account}",
            "rootUrl": "${authBaseUrl}",
            "baseUrl": "/realms/geovisio/account/",
            "surrogateAuthRequired": false,
            "enabled": true,
            "alwaysDisplayInConsole": false,
            "clientAuthenticatorType": "client-secret",
            "redirectUris": [
                "/realms/geovisio/account/*"
            ],
            "webOrigins": [],
            "notBefore": 0,
            "bearerOnly": false,
            "consentRequired": false,
            "standardFlowEnabled": true,
            "implicitFlowEnabled": false,
            "directAccessGrantsEnabled": false,
            "serviceAccountsEnabled": false,
            "publicClient": true,
            "frontchannelLogout": false,
            "protocol": "openid-connect",
            "attributes": {
                "post.logout.redirect.uris": "+"
            },
            "authenticationFlowBindingOverrides": {},
            "fullScopeAllowed": false,
            "nodeReRegistrationTimeout": 0,
            "defaultClientScopes": [
                "web-origins",
                "acr",
                "profile",
                "roles",
                "email"
            ],
            "optionalClientScopes": [
                "address",
                "phone",
                "offline_access",
                "microprofile-jwt"
            ]
        },
        {
            "id": "55295c68-bd7c-45a0-894a-a7091fac1f00",
            "clientId": "account-console",
            "name": "${client_account-console}",
            "rootUrl": "${authBaseUrl}",
            "baseUrl": "/realms/geovisio/account/",
            "surrogateAuthRequired": false,
            "enabled": true,
            "alwaysDisplayInConsole": false,
            "clientAuthenticatorType": "client-secret",
            "redirectUris": [
                "/realms/geovisio/account/*"
            ],
            "webOrigins": [],
            "notBefore": 0,
            "bearerOnly": false,
            "consentRequired": false,
            "standardFlowEnabled": true,
            "implicitFlowEnabled": false,
            "directAccessGrantsEnabled": false,
            "serviceAccountsEnabled": false,
            "publicClient": true,
            "frontchannelLogout": false,
            "protocol": "openid-connect",
            "attributes": {
                "post.logout.redirect.uris": "+",
                "pkce.code.challenge.method": "S256"
            },
            "authenticationFlowBindingOverrides": {},
            "fullScopeAllowed": false,
            "nodeReRegistrationTimeout": 0,
            "protocolMappers": [
                {
                    "id": "9ff821f9-cb4b-44d5-a6b1-66e09c522aeb",
                    "name": "audience resolve",
                    "protocol": "openid-connect",
                    "protocolMapper": "oidc-audience-resolve-mapper",
                    "consentRequired": false,
                    "config": {}
                }
            ],
            "defaultClientScopes": [
                "web-origins",
                "acr",
                "profile",
                "roles",
                "email"
            ],
            "optionalClientScopes": [
                "address",
                "phone",
                "offline_access",
                "microprofile-jwt"
            ]
        },
        {
            "id": "31b0bfdd-c5e9-4a08-abc8-5bba724859cf",
            "clientId": "admin-cli",
            "name": "${client_admin-cli}",
            "surrogateAuthRequired": false,
            "enabled": true,
            "alwaysDisplayInConsole": false,
            "clientAuthenticatorType": "client-secret",
            "redirectUris": [],
            "webOrigins": [],
            "notBefore": 0,
            "bearerOnly": false,
            "consentRequired": false,
            "standardFlowEnabled": false,
            "implicitFlowEnabled": false,
            "directAccessGrantsEnabled": true,
            "serviceAccountsEnabled": false,
            "publicClient": true,
            "frontchannelLogout": false,
            "protocol": "openid-connect",
            "attributes": {},
            "authenticationFlowBindingOverrides": {},
            "fullScopeAllowed": false,
            "nodeReRegistrationTimeout": 0,
            "defaultClientScopes": [
                "web-origins",
                "acr",
                "profile",
                "roles",
                "email"
            ],
            "optionalClientScopes": [
                "address",
                "phone",
                "offline_access",
                "microprofile-jwt"
            ]
        },
        {
            "id": "0883008f-3ce9-4d62-b5e4-14e305768fd5",
            "clientId": "broker",
            "name": "${client_broker}",
            "surrogateAuthRequired": false,
            "enabled": true,
            "alwaysDisplayInConsole": false,
            "clientAuthenticatorType": "client-secret",
            "redirectUris": [],
            "webOrigins": [],
            "notBefore": 0,
            "bearerOnly": true,
            "consentRequired": false,
            "standardFlowEnabled": true,
            "implicitFlowEnabled": false,
            "directAccessGrantsEnabled": false,
            "serviceAccountsEnabled": false,
            "publicClient": false,
            "frontchannelLogout": false,
            "protocol": "openid-connect",
            "attributes": {},
            "authenticationFlowBindingOverrides": {},
            "fullScopeAllowed": false,
            "nodeReRegistrationTimeout": 0,
            "defaultClientScopes": [
                "web-origins",
                "acr",
                "profile",
                "roles",
                "email"
            ],
            "optionalClientScopes": [
                "address",
                "phone",
                "offline_access",
                "microprofile-jwt"
            ]
        },
        {
            "id": "d365fe1b-c06e-4edd-9523-9dfc89ddc43f",
            "clientId": "geovisio",
            "name": "Geovisio oidc client",
            "description": "",
            "rootUrl": "${GEOVISIO_BASE_URL}",
            "adminUrl": "",
            "baseUrl": "/",
            "surrogateAuthRequired": false,
            "enabled": true,
            "alwaysDisplayInConsole": true,
            "clientAuthenticatorType": "client-secret",
            "secret": "${GEOVISIO_CLIENT_SECRET}",
            "redirectUris": [
                "/api/auth/redirect",
                "*"
            ],
            "webOrigins": [],
            "notBefore": 0,
            "bearerOnly": false,
            "consentRequired": false,
            "standardFlowEnabled": true,
            "implicitFlowEnabled": false,
            "directAccessGrantsEnabled": true,
            "serviceAccountsEnabled": false,
            "publicClient": false,
            "frontchannelLogout": true,
            "protocol": "openid-connect",
            "attributes": {
                "client.secret.creation.time": "1673603822",
                "login_theme": "base",
                "post.logout.redirect.uris": "/api/auth/post_logout_redirect",
                "oauth2.device.authorization.grant.enabled": "false",
                "use.jwks.url": "false",
                "backchannel.logout.revoke.offline.tokens": "false",
                "use.refresh.tokens": "true",
                "tls-client-certificate-bound-access-tokens": "false",
                "oidc.ciba.grant.enabled": "false",
                "backchannel.logout.session.required": "true",
                "client_credentials.use_refresh_token": "false",
                "acr.loa.map": "{}",
                "require.pushed.authorization.requests": "false",
                "display.on.consent.screen": "false",
                "token.response.type.bearer.lower-case": "false"
            },
            "authenticationFlowBindingOverrides": {},
            "fullScopeAllowed": true,
            "nodeReRegistrationTimeout": -1,
            "protocolMappers": [
                {
                    "id": "13ea8e5a-55e3-4749-8496-600f204cb4bf",
                    "name": "Client Host",
                    "protocol": "openid-connect",
                    "protocolMapper": "oidc-usersessionmodel-note-mapper",
                    "consentRequired": false,
                    "config": {
                        "user.session.note": "clientHost",
                        "id.token.claim": "true",
                        "access.token.claim": "true",
                        "claim.name": "clientHost",
                        "jsonType.label": "String"
                    }
                },
                {
                    "id": "a8bdf317-f451-49cd-9754-8ca74885f027",
                    "name": "Client ID",
                    "protocol": "openid-connect",
                    "protocolMapper": "oidc-usersessionmodel-note-mapper",
                    "consentRequired": false,
                    "config": {
                        "user.session.note": "clientId",
                        "id.token.claim": "true",
                        "access.token.claim": "true",
                        "claim.name": "clientId",
                        "jsonType.label": "String"
                    }
                },
                {
                    "id": "e6a36621-df75-4280-a09c-41f6655caab7",
                    "name": "Client IP Address",
                    "protocol": "openid-connect",
                    "protocolMapper": "oidc-usersessionmodel-note-mapper",
                    "consentRequired": false,
                    "config": {
                        "user.session.note": "clientAddress",
                        "id.token.claim": "true",
                        "access.token.claim": "true",
                        "claim.name": "clientAddress",
                        "jsonType.label": "String"
                    }
                }
            ],
            "defaultClientScopes": [
                "web-origins",
                "acr",
                "profile",
                "roles",
                "good-service",
                "email"
            ],
            "optionalClientScopes": [
                "address",
                "phone",
                "offline_access",
                "microprofile-jwt"
            ]
        },
        {
            "id": "a109fa67-7db0-4736-bca0-c92db15c25ee",
            "clientId": "realm-management",
            "name": "${client_realm-management}",
            "surrogateAuthRequired": false,
            "enabled": true,
            "alwaysDisplayInConsole": false,
            "clientAuthenticatorType": "client-secret",
            "redirectUris": [],
            "webOrigins": [],
            "notBefore": 0,
            "bearerOnly": true,
            "consentRequired": false,
            "standardFlowEnabled": true,
            "implicitFlowEnabled": false,
            "directAccessGrantsEnabled": false,
            "serviceAccountsEnabled": false,
            "publicClient": false,
            "frontchannelLogout": false,
            "protocol": "openid-connect",
            "attributes": {},
            "authenticationFlowBindingOverrides": {},
            "fullScopeAllowed": false,
            "nodeReRegistrationTimeout": 0,
            "defaultClientScopes": [
                "web-origins",
                "acr",
                "profile",
                "roles",
                "email"
            ],
            "optionalClientScopes": [
                "address",
                "phone",
                "offline_access",
                "microprofile-jwt"
            ]
        },
        {
            "id": "5c260bd2-8c06-4294-b9d2-e7b83b00e877",
            "clientId": "security-admin-console",
            "name": "${client_security-admin-console}",
            "rootUrl": "${authAdminUrl}",
            "baseUrl": "/admin/geovisio/console/",
            "surrogateAuthRequired": false,
            "enabled": true,
            "alwaysDisplayInConsole": false,
            "clientAuthenticatorType": "client-secret",
            "redirectUris": [
                "/admin/geovisio/console/*"
            ],
            "webOrigins": [
                "+"
            ],
            "notBefore": 0,
            "bearerOnly": false,
            "consentRequired": false,
            "standardFlowEnabled": true,
            "implicitFlowEnabled": false,
            "directAccessGrantsEnabled": false,
            "serviceAccountsEnabled": false,
            "publicClient": true,
            "frontchannelLogout": false,
            "protocol": "openid-connect",
            "attributes": {
                "post.logout.redirect.uris": "+",
                "pkce.code.challenge.method": "S256"
            },
            "authenticationFlowBindingOverrides": {},
            "fullScopeAllowed": false,
            "nodeReRegistrationTimeout": 0,
            "protocolMappers": [
                {
                    "id": "73302b9b-6357-4fd5-a1d2-e565fc1d712c",
                    "name": "locale",
                    "protocol": "openid-connect",
                    "protocolMapper": "oidc-usermodel-attribute-mapper",
                    "consentRequired": false,
                    "config": {
                        "userinfo.token.claim": "true",
                        "user.attribute": "locale",
                        "id.token.claim": "true",
                        "access.token.claim": "true",
                        "claim.name": "locale",
                        "jsonType.label": "String"
                    }
                }
            ],
            "defaultClientScopes": [
                "web-origins",
                "acr",
                "profile",
                "roles",
                "email"
            ],
            "optionalClientScopes": [
                "address",
                "phone",
                "offline_access",
                "microprofile-jwt"
            ]
        }
    ],
    "clientScopes": [
        {
            "id": "b2100a8d-5505-43ed-bd71-5610c9861cf1",
            "name": "acr",
            "description": "OpenID Connect scope for add acr (authentication context class reference) to the token",
            "protocol": "openid-connect",
            "attributes": {
                "include.in.token.scope": "false",
                "display.on.consent.screen": "false"
            },
            "protocolMappers": [
                {
                    "id": "d52c41fb-2b00-4ecc-87b8-9075079eb779",
                    "name": "acr loa level",
                    "protocol": "openid-connect",
                    "protocolMapper": "oidc-acr-mapper",
                    "consentRequired": false,
                    "config": {
                        "id.token.claim": "true",
                        "access.token.claim": "true"
                    }
                }
            ]
        },
        {
            "id": "d59ffd06-21db-4c17-a930-221f6a7c8810",
            "name": "good-service",
            "description": "",
            "protocol": "openid-connect",
            "attributes": {
                "include.in.token.scope": "true",
                "display.on.consent.screen": "true",
                "gui.order": "",
                "consent.screen.text": ""
            },
            "protocolMappers": [
                {
                    "id": "4350adbe-6522-4cf1-b63b-f53a5ac3094a",
                    "name": "hardcodedAudience",
                    "protocol": "openid-connect",
                    "protocolMapper": "oidc-audience-mapper",
                    "consentRequired": false,
                    "config": {
                        "included.client.audience": "geovisio",
                        "id.token.claim": "false",
                        "access.token.claim": "true"
                    }
                },
                {
                    "id": "a97d7ab2-94cb-42bf-ae2a-c03499a888bd",
                    "name": "audience resolve",
                    "protocol": "openid-connect",
                    "protocolMapper": "oidc-audience-resolve-mapper",
                    "consentRequired": false,
                    "config": {}
                }
            ]
        },
        {
            "id": "eb19d76c-735b-47aa-a796-cedb6aba289f",
            "name": "profile",
            "description": "OpenID Connect built-in scope: profile",
            "protocol": "openid-connect",
            "attributes": {
                "include.in.token.scope": "true",
                "display.on.consent.screen": "true",
                "consent.screen.text": "${profileScopeConsentText}"
            },
            "protocolMappers": [
                {
                    "id": "ffebbd59-78fe-47f6-8d18-d6969ea16e86",
                    "name": "middle name",
                    "protocol": "openid-connect",
                    "protocolMapper": "oidc-usermodel-attribute-mapper",
                    "consentRequired": false,
                    "config": {
                        "userinfo.token.claim": "true",
                        "user.attribute": "middleName",
                        "id.token.claim": "true",
                        "access.token.claim": "true",
                        "claim.name": "middle_name",
                        "jsonType.label": "String"
                    }
                },
                {
                    "id": "07b7f6e2-3dce-492c-ada2-eb35c81a185e",
                    "name": "family name",
                    "protocol": "openid-connect",
                    "protocolMapper": "oidc-usermodel-property-mapper",
                    "consentRequired": false,
                    "config": {
                        "userinfo.token.claim": "true",
                        "user.attribute": "lastName",
                        "id.token.claim": "true",
                        "access.token.claim": "true",
                        "claim.name": "family_name",
                        "jsonType.label": "String"
                    }
                },
                {
                    "id": "6c5a2366-fb7d-450c-b3fc-52fcf3f04115",
                    "name": "birthdate",
                    "protocol": "openid-connect",
                    "protocolMapper": "oidc-usermodel-attribute-mapper",
                    "consentRequired": false,
                    "config": {
                        "userinfo.token.claim": "true",
                        "user.attribute": "birthdate",
                        "id.token.claim": "true",
                        "access.token.claim": "true",
                        "claim.name": "birthdate",
                        "jsonType.label": "String"
                    }
                },
                {
                    "id": "25749ff3-45ea-4e11-a42c-6e1038de8a92",
                    "name": "given name",
                    "protocol": "openid-connect",
                    "protocolMapper": "oidc-usermodel-property-mapper",
                    "consentRequired": false,
                    "config": {
                        "userinfo.token.claim": "true",
                        "user.attribute": "firstName",
                        "id.token.claim": "true",
                        "access.token.claim": "true",
                        "claim.name": "given_name",
                        "jsonType.label": "String"
                    }
                },
                {
                    "id": "b5ce11f0-2ab0-4552-9d1d-0b358fd4cea8",
                    "name": "profile",
                    "protocol": "openid-connect",
                    "protocolMapper": "oidc-usermodel-attribute-mapper",
                    "consentRequired": false,
                    "config": {
                        "userinfo.token.claim": "true",
                        "user.attribute": "profile",
                        "id.token.claim": "true",
                        "access.token.claim": "true",
                        "claim.name": "profile",
                        "jsonType.label": "String"
                    }
                },
                {
                    "id": "2f4781b1-328a-4d02-a882-9ddf129c7034",
                    "name": "picture",
                    "protocol": "openid-connect",
                    "protocolMapper": "oidc-usermodel-attribute-mapper",
                    "consentRequired": false,
                    "config": {
                        "userinfo.token.claim": "true",
                        "user.attribute": "picture",
                        "id.token.claim": "true",
                        "access.token.claim": "true",
                        "claim.name": "picture",
                        "jsonType.label": "String"
                    }
                },
                {
                    "id": "8873fd0c-e496-4fa6-bc3b-e7e5f36a03b6",
                    "name": "gender",
                    "protocol": "openid-connect",
                    "protocolMapper": "oidc-usermodel-attribute-mapper",
                    "consentRequired": false,
                    "config": {
                        "userinfo.token.claim": "true",
                        "user.attribute": "gender",
                        "id.token.claim": "true",
                        "access.token.claim": "true",
                        "claim.name": "gender",
                        "jsonType.label": "String"
                    }
                },
                {
                    "id": "e0dfe713-860d-48aa-a81b-981065ee663c",
                    "name": "username",
                    "protocol": "openid-connect",
                    "protocolMapper": "oidc-usermodel-property-mapper",
                    "consentRequired": false,
                    "config": {
                        "userinfo.token.claim": "true",
                        "user.attribute": "username",
                        "id.token.claim": "true",
                        "access.token.claim": "true",
                        "claim.name": "preferred_username",
                        "jsonType.label": "String"
                    }
                },
                {
                    "id": "796bef8b-f10f-446a-8bfc-4b915ff83c65",
                    "name": "zoneinfo",
                    "protocol": "openid-connect",
                    "protocolMapper": "oidc-usermodel-attribute-mapper",
                    "consentRequired": false,
                    "config": {
                        "userinfo.token.claim": "true",
                        "user.attribute": "zoneinfo",
                        "id.token.claim": "true",
                        "access.token.claim": "true",
                        "claim.name": "zoneinfo",
                        "jsonType.label": "String"
                    }
                },
                {
                    "id": "43a94ab9-dd04-4053-a64d-cc5d07ccef2f",
                    "name": "nickname",
                    "protocol": "openid-connect",
                    "protocolMapper": "oidc-usermodel-attribute-mapper",
                    "consentRequired": false,
                    "config": {
                        "userinfo.token.claim": "true",
                        "user.attribute": "nickname",
                        "id.token.claim": "true",
                        "access.token.claim": "true",
                        "claim.name": "nickname",
                        "jsonType.label": "String"
                    }
                },
                {
                    "id": "ed4f5d54-d4cc-4a5d-b0a2-89ba58f7059d",
                    "name": "locale",
                    "protocol": "openid-connect",
                    "protocolMapper": "oidc-usermodel-attribute-mapper",
                    "consentRequired": false,
                    "config": {
                        "userinfo.token.claim": "true",
                        "user.attribute": "locale",
                        "id.token.claim": "true",
                        "access.token.claim": "true",
                        "claim.name": "locale",
                        "jsonType.label": "String"
                    }
                },
                {
                    "id": "5a5381c6-16aa-45f1-9617-9b861606675a",
                    "name": "updated at",
                    "protocol": "openid-connect",
                    "protocolMapper": "oidc-usermodel-attribute-mapper",
                    "consentRequired": false,
                    "config": {
                        "userinfo.token.claim": "true",
                        "user.attribute": "updatedAt",
                        "id.token.claim": "true",
                        "access.token.claim": "true",
                        "claim.name": "updated_at",
                        "jsonType.label": "long"
                    }
                },
                {
                    "id": "551eae73-412c-424d-be65-51b0550d59a7",
                    "name": "full name",
                    "protocol": "openid-connect",
                    "protocolMapper": "oidc-full-name-mapper",
                    "consentRequired": false,
                    "config": {
                        "id.token.claim": "true",
                        "access.token.claim": "true",
                        "userinfo.token.claim": "true"
                    }
                },
                {
                    "id": "2b36bb5f-d24f-4209-889c-5ebce2002efe",
                    "name": "website",
                    "protocol": "openid-connect",
                    "protocolMapper": "oidc-usermodel-attribute-mapper",
                    "consentRequired": false,
                    "config": {
                        "userinfo.token.claim": "true",
                        "user.attribute": "website",
                        "id.token.claim": "true",
                        "access.token.claim": "true",
                        "claim.name": "website",
                        "jsonType.label": "String"
                    }
                }
            ]
        },
        {
            "id": "cdfc5fa2-a58f-479f-b1f2-b1c3f27c729c",
            "name": "offline_access",
            "description": "OpenID Connect built-in scope: offline_access",
            "protocol": "openid-connect",
            "attributes": {
                "consent.screen.text": "${offlineAccessScopeConsentText}",
                "display.on.consent.screen": "true"
            }
        },
        {
            "id": "0d424b87-6e41-429b-9b0f-1dd7f3e22e20",
            "name": "role_list",
            "description": "SAML role list",
            "protocol": "saml",
            "attributes": {
                "consent.screen.text": "${samlRoleListScopeConsentText}",
                "display.on.consent.screen": "true"
            },
            "protocolMappers": [
                {
                    "id": "39cbbd3b-3e29-46ef-b79d-c19554384a17",
                    "name": "role list",
                    "protocol": "saml",
                    "protocolMapper": "saml-role-list-mapper",
                    "consentRequired": false,
                    "config": {
                        "single": "false",
                        "attribute.nameformat": "Basic",
                        "attribute.name": "Role"
                    }
                }
            ]
        },
        {
            "id": "2e370ae9-95e2-42f1-9dae-a02325154ee8",
            "name": "email",
            "description": "OpenID Connect built-in scope: email",
            "protocol": "openid-connect",
            "attributes": {
                "include.in.token.scope": "true",
                "display.on.consent.screen": "true",
                "consent.screen.text": "${emailScopeConsentText}"
            },
            "protocolMappers": [
                {
                    "id": "a0ca55dc-76df-4967-b58c-fad1e0078fd0",
                    "name": "email",
                    "protocol": "openid-connect",
                    "protocolMapper": "oidc-usermodel-property-mapper",
                    "consentRequired": false,
                    "config": {
                        "userinfo.token.claim": "true",
                        "user.attribute": "email",
                        "id.token.claim": "true",
                        "access.token.claim": "true",
                        "claim.name": "email",
                        "jsonType.label": "String"
                    }
                },
                {
                    "id": "bb04ced2-fa9c-4507-8819-287c8b2dc315",
                    "name": "email verified",
                    "protocol": "openid-connect",
                    "protocolMapper": "oidc-usermodel-property-mapper",
                    "consentRequired": false,
                    "config": {
                        "userinfo.token.claim": "true",
                        "user.attribute": "emailVerified",
                        "id.token.claim": "true",
                        "access.token.claim": "true",
                        "claim.name": "email_verified",
                        "jsonType.label": "boolean"
                    }
                }
            ]
        },
        {
            "id": "a81a77d3-cbf5-43ce-b881-5165181389fc",
            "name": "phone",
            "description": "OpenID Connect built-in scope: phone",
            "protocol": "openid-connect",
            "attributes": {
                "include.in.token.scope": "true",
                "display.on.consent.screen": "true",
                "consent.screen.text": "${phoneScopeConsentText}"
            },
            "protocolMappers": [
                {
                    "id": "44c930a9-47ac-4e9f-8d88-97c1b87fa85d",
                    "name": "phone number",
                    "protocol": "openid-connect",
                    "protocolMapper": "oidc-usermodel-attribute-mapper",
                    "consentRequired": false,
                    "config": {
                        "userinfo.token.claim": "true",
                        "user.attribute": "phoneNumber",
                        "id.token.claim": "true",
                        "access.token.claim": "true",
                        "claim.name": "phone_number",
                        "jsonType.label": "String"
                    }
                },
                {
                    "id": "cfbf7b7d-0ffc-4140-bc68-5035db030e0f",
                    "name": "phone number verified",
                    "protocol": "openid-connect",
                    "protocolMapper": "oidc-usermodel-attribute-mapper",
                    "consentRequired": false,
                    "config": {
                        "userinfo.token.claim": "true",
                        "user.attribute": "phoneNumberVerified",
                        "id.token.claim": "true",
                        "access.token.claim": "true",
                        "claim.name": "phone_number_verified",
                        "jsonType.label": "boolean"
                    }
                }
            ]
        },
        {
            "id": "d52f3ef8-7c00-455b-8854-26b9d7610599",
            "name": "microprofile-jwt",
            "description": "Microprofile - JWT built-in scope",
            "protocol": "openid-connect",
            "attributes": {
                "include.in.token.scope": "true",
                "display.on.consent.screen": "false"
            },
            "protocolMappers": [
                {
                    "id": "36ccf9d7-1d1e-4889-9e23-fa718efe9447",
                    "name": "groups",
                    "protocol": "openid-connect",
                    "protocolMapper": "oidc-usermodel-realm-role-mapper",
                    "consentRequired": false,
                    "config": {
                        "multivalued": "true",
                        "user.attribute": "foo",
                        "id.token.claim": "true",
                        "access.token.claim": "true",
                        "claim.name": "groups",
                        "jsonType.label": "String"
                    }
                },
                {
                    "id": "66ac9c0b-287b-424a-b21f-bfebb3c9323d",
                    "name": "upn",
                    "protocol": "openid-connect",
                    "protocolMapper": "oidc-usermodel-property-mapper",
                    "consentRequired": false,
                    "config": {
                        "userinfo.token.claim": "true",
                        "user.attribute": "username",
                        "id.token.claim": "true",
                        "access.token.claim": "true",
                        "claim.name": "upn",
                        "jsonType.label": "String"
                    }
                }
            ]
        },
        {
            "id": "941f1e24-3c50-47e4-a3b7-6bf57d412235",
            "name": "address",
            "description": "OpenID Connect built-in scope: address",
            "protocol": "openid-connect",
            "attributes": {
                "include.in.token.scope": "true",
                "display.on.consent.screen": "true",
                "consent.screen.text": "${addressScopeConsentText}"
            },
            "protocolMappers": [
                {
                    "id": "e01cf916-2418-4d56-8668-727c96f7bb1e",
                    "name": "address",
                    "protocol": "openid-connect",
                    "protocolMapper": "oidc-address-mapper",
                    "consentRequired": false,
                    "config": {
                        "user.attribute.formatted": "formatted",
                        "user.attribute.country": "country",
                        "user.attribute.postal_code": "postal_code",
                        "userinfo.token.claim": "true",
                        "user.attribute.street": "street",
                        "id.token.claim": "true",
                        "user.attribute.region": "region",
                        "access.token.claim": "true",
                        "user.attribute.locality": "locality"
                    }
                }
            ]
        },
        {
            "id": "33b9a458-d68a-49ba-b39f-424fdacdc464",
            "name": "roles",
            "description": "OpenID Connect scope for add user roles to the access token",
            "protocol": "openid-connect",
            "attributes": {
                "include.in.token.scope": "true",
                "display.on.consent.screen": "true",
                "gui.order": "",
                "consent.screen.text": "${rolesScopeConsentText}"
            },
            "protocolMappers": [
                {
                    "id": "8b91b308-50ad-4e9d-ad8e-0a82b40ed010",
                    "name": "realm roles",
                    "protocol": "openid-connect",
                    "protocolMapper": "oidc-usermodel-realm-role-mapper",
                    "consentRequired": false,
                    "config": {
                        "user.attribute": "foo",
                        "access.token.claim": "true",
                        "claim.name": "realm_access.roles",
                        "jsonType.label": "String",
                        "multivalued": "true"
                    }
                },
                {
                    "id": "8faef20b-43c0-4d7b-a673-b898de967e20",
                    "name": "audience resolve",
                    "protocol": "openid-connect",
                    "protocolMapper": "oidc-audience-resolve-mapper",
                    "consentRequired": false,
                    "config": {}
                },
                {
                    "id": "b105f7e7-9824-4ac4-b679-38f1a20b0ec5",
                    "name": "client roles",
                    "protocol": "openid-connect",
                    "protocolMapper": "oidc-usermodel-client-role-mapper",
                    "consentRequired": false,
                    "config": {
                        "user.attribute": "foo",
                        "access.token.claim": "true",
                        "claim.name": "resource_access.${client_id}.roles",
                        "jsonType.label": "String",
                        "multivalued": "true"
                    }
                }
            ]
        },
        {
            "id": "db2c1bec-14ae-4855-92ab-30cf40284356",
            "name": "web-origins",
            "description": "OpenID Connect scope for add allowed web origins to the access token",
            "protocol": "openid-connect",
            "attributes": {
                "include.in.token.scope": "false",
                "display.on.consent.screen": "false",
                "consent.screen.text": ""
            },
            "protocolMappers": [
                {
                    "id": "16fdbac4-1e4d-47d5-8105-33fe85353677",
                    "name": "allowed web origins",
                    "protocol": "openid-connect",
                    "protocolMapper": "oidc-allowed-origins-mapper",
                    "consentRequired": false,
                    "config": {}
                }
            ]
        }
    ],
    "defaultDefaultClientScopes": [
        "role_list",
        "profile",
        "email",
        "web-origins",
        "acr",
        "roles",
        "good-service"
    ],
    "defaultOptionalClientScopes": [
        "offline_access",
        "address",
        "phone",
        "microprofile-jwt"
    ],
    "browserSecurityHeaders": {
        "contentSecurityPolicyReportOnly": "",
        "xContentTypeOptions": "nosniff",
        "xRobotsTag": "none",
        "xFrameOptions": "SAMEORIGIN",
        "contentSecurityPolicy": "frame-src 'self'; frame-ancestors 'self'; object-src 'none';",
        "xXSSProtection": "1; mode=block",
        "strictTransportSecurity": "max-age=31536000; includeSubDomains"
    },
    "smtpServer": {},
    "eventsEnabled": false,
    "eventsListeners": [
        "jboss-logging"
    ],
    "enabledEventTypes": [],
    "adminEventsEnabled": false,
    "adminEventsDetailsEnabled": false,
    "identityProviders": [],
    "identityProviderMappers": [],
    "components": {
        "org.keycloak.services.clientregistration.policy.ClientRegistrationPolicy": [
            {
                "id": "134720a0-561b-46cc-a27a-48c7a9e792bb",
                "name": "Allowed Protocol Mapper Types",
                "providerId": "allowed-protocol-mappers",
                "subType": "anonymous",
                "subComponents": {},
                "config": {
                    "allowed-protocol-mapper-types": [
                        "oidc-address-mapper",
                        "oidc-usermodel-attribute-mapper",
                        "oidc-usermodel-property-mapper",
                        "oidc-full-name-mapper",
                        "saml-role-list-mapper",
                        "saml-user-property-mapper",
                        "oidc-sha256-pairwise-sub-mapper",
                        "saml-user-attribute-mapper"
                    ]
                }
            },
            {
                "id": "d391d559-4166-4012-93f6-8efa54a6c72f",
                "name": "Full Scope Disabled",
                "providerId": "scope",
                "subType": "anonymous",
                "subComponents": {},
                "config": {}
            },
            {
                "id": "7670a3c1-17af-49c9-acb2-967af115336e",
                "name": "Consent Required",
                "providerId": "consent-required",
                "subType": "anonymous",
                "subComponents": {},
                "config": {}
            },
            {
                "id": "9fce0206-f0eb-455a-bf9c-b6f5ab51ca95",
                "name": "Allowed Protocol Mapper Types",
                "providerId": "allowed-protocol-mappers",
                "subType": "authenticated",
                "subComponents": {},
                "config": {
                    "allowed-protocol-mapper-types": [
                        "saml-user-attribute-mapper",
                        "oidc-usermodel-property-mapper",
                        "oidc-full-name-mapper",
                        "saml-user-property-mapper",
                        "oidc-address-mapper",
                        "oidc-usermodel-attribute-mapper",
                        "oidc-sha256-pairwise-sub-mapper",
                        "saml-role-list-mapper"
                    ]
                }
            },
            {
                "id": "d609871d-824f-4b6b-b001-650ab8cc82d9",
                "name": "Trusted Hosts",
                "providerId": "trusted-hosts",
                "subType": "anonymous",
                "subComponents": {},
                "config": {
                    "host-sending-registration-request-must-match": [
                        "true"
                    ],
                    "client-uris-must-match": [
                        "true"
                    ]
                }
            },
            {
                "id": "c8d2b01f-f950-4cc5-af1b-1160f83735ed",
                "name": "Allowed Client Scopes",
                "providerId": "allowed-client-templates",
                "subType": "anonymous",
                "subComponents": {},
                "config": {
                    "allow-default-scopes": [
                        "true"
                    ]
                }
            },
            {
                "id": "30e766b7-ff4e-4c2a-a5f0-7a223e762775",
                "name": "Max Clients Limit",
                "providerId": "max-clients",
                "subType": "anonymous",
                "subComponents": {},
                "config": {
                    "max-clients": [
                        "200"
                    ]
                }
            },
            {
                "id": "a0b2c754-d4c0-47ba-870c-ae5a53a7c098",
                "name": "Allowed Client Scopes",
                "providerId": "allowed-client-templates",
                "subType": "authenticated",
                "subComponents": {},
                "config": {
                    "allow-default-scopes": [
                        "true"
                    ]
                }
            }
        ],
        "org.keycloak.userprofile.UserProfileProvider": [
            {
                "id": "96e6c5a8-3b62-475d-9bd1-e48c7f553a99",
                "providerId": "declarative-user-profile",
                "subComponents": {},
                "config": {}
            }
        ],
        "org.keycloak.keys.KeyProvider": [
            {
                "id": "e51e4579-936c-48c9-baf6-a835ff171d15",
                "name": "rsa-generated",
                "providerId": "rsa-generated",
                "subComponents": {},
                "config": {
                    "priority": [
                        "100"
                    ]
                }
            },
            {
                "id": "52c01771-bc9c-403b-b57d-decaa972ecc2",
                "name": "aes-generated",
                "providerId": "aes-generated",
                "subComponents": {},
                "config": {
                    "priority": [
                        "100"
                    ]
                }
            },
            {
                "id": "bcc11b3d-256c-4000-aa7a-f7b9cdbb2bac",
                "name": "hmac-generated",
                "providerId": "hmac-generated",
                "subComponents": {},
                "config": {
                    "priority": [
                        "100"
                    ],
                    "algorithm": [
                        "HS256"
                    ]
                }
            },
            {
                "id": "f9a1982c-6297-4ed4-9ebb-0b0ca1b0049a",
                "name": "rsa-enc-generated",
                "providerId": "rsa-enc-generated",
                "subComponents": {},
                "config": {
                    "priority": [
                        "100"
                    ],
                    "algorithm": [
                        "RSA-OAEP"
                    ]
                }
            }
        ]
    },
    "internationalizationEnabled": false,
    "supportedLocales": [],
    "authenticationFlows": [
        {
            "id": "89484fad-bade-4672-b1cf-37326527981f",
            "alias": "Account verification options",
            "description": "Method with which to verity the existing account",
            "providerId": "basic-flow",
            "topLevel": false,
            "builtIn": true,
            "authenticationExecutions": [
                {
                    "authenticator": "idp-email-verification",
                    "authenticatorFlow": false,
                    "requirement": "ALTERNATIVE",
                    "priority": 10,
                    "autheticatorFlow": false,
                    "userSetupAllowed": false
                },
                {
                    "authenticatorFlow": true,
                    "requirement": "ALTERNATIVE",
                    "priority": 20,
                    "autheticatorFlow": true,
                    "flowAlias": "Verify Existing Account by Re-authentication",
                    "userSetupAllowed": false
                }
            ]
        },
        {
            "id": "9d293787-6ddf-41ad-951f-5602d0267879",
            "alias": "Authentication Options",
            "description": "Authentication options.",
            "providerId": "basic-flow",
            "topLevel": false,
            "builtIn": true,
            "authenticationExecutions": [
                {
                    "authenticator": "basic-auth",
                    "authenticatorFlow": false,
                    "requirement": "REQUIRED",
                    "priority": 10,
                    "autheticatorFlow": false,
                    "userSetupAllowed": false
                },
                {
                    "authenticator": "basic-auth-otp",
                    "authenticatorFlow": false,
                    "requirement": "DISABLED",
                    "priority": 20,
                    "autheticatorFlow": false,
                    "userSetupAllowed": false
                },
                {
                    "authenticator": "auth-spnego",
                    "authenticatorFlow": false,
                    "requirement": "DISABLED",
                    "priority": 30,
                    "autheticatorFlow": false,
                    "userSetupAllowed": false
                }
            ]
        },
        {
            "id": "465e7fda-6648-4ab2-8193-e3f93db2baac",
            "alias": "Browser - Conditional OTP",
            "description": "Flow to determine if the OTP is required for the authentication",
            "providerId": "basic-flow",
            "topLevel": false,
            "builtIn": true,
            "authenticationExecutions": [
                {
                    "authenticator": "conditional-user-configured",
                    "authenticatorFlow": false,
                    "requirement": "REQUIRED",
                    "priority": 10,
                    "autheticatorFlow": false,
                    "userSetupAllowed": false
                },
                {
                    "authenticator": "auth-otp-form",
                    "authenticatorFlow": false,
                    "requirement": "REQUIRED",
                    "priority": 20,
                    "autheticatorFlow": false,
                    "userSetupAllowed": false
                }
            ]
        },
        {
            "id": "c412c027-1ef6-48b1-8e46-5ce62bc43a50",
            "alias": "Direct Grant - Conditional OTP",
            "description": "Flow to determine if the OTP is required for the authentication",
            "providerId": "basic-flow",
            "topLevel": false,
            "builtIn": true,
            "authenticationExecutions": [
                {
                    "authenticator": "conditional-user-configured",
                    "authenticatorFlow": false,
                    "requirement": "REQUIRED",
                    "priority": 10,
                    "autheticatorFlow": false,
                    "userSetupAllowed": false
                },
                {
                    "authenticator": "direct-grant-validate-otp",
                    "authenticatorFlow": false,
                    "requirement": "REQUIRED",
                    "priority": 20,
                    "autheticatorFlow": false,
                    "userSetupAllowed": false
                }
            ]
        },
        {
            "id": "0ba61c65-d773-4f34-879c-52673d700f5d",
            "alias": "First broker login - Conditional OTP",
            "description": "Flow to determine if the OTP is required for the authentication",
            "providerId": "basic-flow",
            "topLevel": false,
            "builtIn": true,
            "authenticationExecutions": [
                {
                    "authenticator": "conditional-user-configured",
                    "authenticatorFlow": false,
                    "requirement": "REQUIRED",
                    "priority": 10,
                    "autheticatorFlow": false,
                    "userSetupAllowed": false
                },
                {
                    "authenticator": "auth-otp-form",
                    "authenticatorFlow": false,
                    "requirement": "REQUIRED",
                    "priority": 20,
                    "autheticatorFlow": false,
                    "userSetupAllowed": false
                }
            ]
        },
        {
            "id": "da1ab235-ccf6-4479-920e-822e46ca78eb",
            "alias": "Handle Existing Account",
            "description": "Handle what to do if there is existing account with same email/username like authenticated identity provider",
            "providerId": "basic-flow",
            "topLevel": false,
            "builtIn": true,
            "authenticationExecutions": [
                {
                    "authenticator": "idp-confirm-link",
                    "authenticatorFlow": false,
                    "requirement": "REQUIRED",
                    "priority": 10,
                    "autheticatorFlow": false,
                    "userSetupAllowed": false
                },
                {
                    "authenticatorFlow": true,
                    "requirement": "REQUIRED",
                    "priority": 20,
                    "autheticatorFlow": true,
                    "flowAlias": "Account verification options",
                    "userSetupAllowed": false
                }
            ]
        },
        {
            "id": "52a7a47e-71ee-4d35-84ae-644c1596b9ed",
            "alias": "Reset - Conditional OTP",
            "description": "Flow to determine if the OTP should be reset or not. Set to REQUIRED to force.",
            "providerId": "basic-flow",
            "topLevel": false,
            "builtIn": true,
            "authenticationExecutions": [
                {
                    "authenticator": "conditional-user-configured",
                    "authenticatorFlow": false,
                    "requirement": "REQUIRED",
                    "priority": 10,
                    "autheticatorFlow": false,
                    "userSetupAllowed": false
                },
                {
                    "authenticator": "reset-otp",
                    "authenticatorFlow": false,
                    "requirement": "REQUIRED",
                    "priority": 20,
                    "autheticatorFlow": false,
                    "userSetupAllowed": false
                }
            ]
        },
        {
            "id": "e8e22ec4-708e-4b20-af94-9933623e5f51",
            "alias": "User creation or linking",
            "description": "Flow for the existing/non-existing user alternatives",
            "providerId": "basic-flow",
            "topLevel": false,
            "builtIn": true,
            "authenticationExecutions": [
                {
                    "authenticatorConfig": "create unique user config",
                    "authenticator": "idp-create-user-if-unique",
                    "authenticatorFlow": false,
                    "requirement": "ALTERNATIVE",
                    "priority": 10,
                    "autheticatorFlow": false,
                    "userSetupAllowed": false
                },
                {
                    "authenticatorFlow": true,
                    "requirement": "ALTERNATIVE",
                    "priority": 20,
                    "autheticatorFlow": true,
                    "flowAlias": "Handle Existing Account",
                    "userSetupAllowed": false
                }
            ]
        },
        {
            "id": "50f8c249-4d02-428e-9d81-5fd5b020ab55",
            "alias": "Verify Existing Account by Re-authentication",
            "description": "Reauthentication of existing account",
            "providerId": "basic-flow",
            "topLevel": false,
            "builtIn": true,
            "authenticationExecutions": [
                {
                    "authenticator": "idp-username-password-form",
                    "authenticatorFlow": false,
                    "requirement": "REQUIRED",
                    "priority": 10,
                    "autheticatorFlow": false,
                    "userSetupAllowed": false
                },
                {
                    "authenticatorFlow": true,
                    "requirement": "CONDITIONAL",
                    "priority": 20,
                    "autheticatorFlow": true,
                    "flowAlias": "First broker login - Conditional OTP",
                    "userSetupAllowed": false
                }
            ]
        },
        {
            "id": "469750a2-5e5d-44af-bb99-d94e99ab11ae",
            "alias": "browser",
            "description": "browser based authentication",
            "providerId": "basic-flow",
            "topLevel": true,
            "builtIn": true,
            "authenticationExecutions": [
                {
                    "authenticator": "auth-cookie",
                    "authenticatorFlow": false,
                    "requirement": "ALTERNATIVE",
                    "priority": 10,
                    "autheticatorFlow": false,
                    "userSetupAllowed": false
                },
                {
                    "authenticator": "auth-spnego",
                    "authenticatorFlow": false,
                    "requirement": "DISABLED",
                    "priority": 20,
                    "autheticatorFlow": false,
                    "userSetupAllowed": false
                },
                {
                    "authenticator": "identity-provider-redirector",
                    "authenticatorFlow": false,
                    "requirement": "ALTERNATIVE",
                    "priority": 25,
                    "autheticatorFlow": false,
                    "userSetupAllowed": false
                },
                {
                    "authenticatorFlow": true,
                    "requirement": "ALTERNATIVE",
                    "priority": 30,
                    "autheticatorFlow": true,
                    "flowAlias": "forms",
                    "userSetupAllowed": false
                }
            ]
        },
        {
            "id": "e43bf853-33af-4bac-9313-7b70c9462312",
            "alias": "clients",
            "description": "Base authentication for clients",
            "providerId": "client-flow",
            "topLevel": true,
            "builtIn": true,
            "authenticationExecutions": [
                {
                    "authenticator": "client-secret",
                    "authenticatorFlow": false,
                    "requirement": "ALTERNATIVE",
                    "priority": 10,
                    "autheticatorFlow": false,
                    "userSetupAllowed": false
                },
                {
                    "authenticator": "client-jwt",
                    "authenticatorFlow": false,
                    "requirement": "ALTERNATIVE",
                    "priority": 20,
                    "autheticatorFlow": false,
                    "userSetupAllowed": false
                },
                {
                    "authenticator": "client-secret-jwt",
                    "authenticatorFlow": false,
                    "requirement": "ALTERNATIVE",
                    "priority": 30,
                    "autheticatorFlow": false,
                    "userSetupAllowed": false
                },
                {
                    "authenticator": "client-x509",
                    "authenticatorFlow": false,
                    "requirement": "ALTERNATIVE",
                    "priority": 40,
                    "autheticatorFlow": false,
                    "userSetupAllowed": false
                }
            ]
        },
        {
            "id": "3e7e5d06-0899-4b80-9835-e9451381d2a2",
            "alias": "direct grant",
            "description": "OpenID Connect Resource Owner Grant",
            "providerId": "basic-flow",
            "topLevel": true,
            "builtIn": true,
            "authenticationExecutions": [
                {
                    "authenticator": "direct-grant-validate-username",
                    "authenticatorFlow": false,
                    "requirement": "REQUIRED",
                    "priority": 10,
                    "autheticatorFlow": false,
                    "userSetupAllowed": false
                },
                {
                    "authenticator": "direct-grant-validate-password",
                    "authenticatorFlow": false,
                    "requirement": "REQUIRED",
                    "priority": 20,
                    "autheticatorFlow": false,
                    "userSetupAllowed": false
                },
                {
                    "authenticatorFlow": true,
                    "requirement": "CONDITIONAL",
                    "priority": 30,
                    "autheticatorFlow": true,
                    "flowAlias": "Direct Grant - Conditional OTP",
                    "userSetupAllowed": false
                }
            ]
        },
        {
            "id": "7f48ea1b-9db1-4612-bbe6-67db5a08fb67",
            "alias": "docker auth",
            "description": "Used by Docker clients to authenticate against the IDP",
            "providerId": "basic-flow",
            "topLevel": true,
            "builtIn": true,
            "authenticationExecutions": [
                {
                    "authenticator": "docker-http-basic-authenticator",
                    "authenticatorFlow": false,
                    "requirement": "REQUIRED",
                    "priority": 10,
                    "autheticatorFlow": false,
                    "userSetupAllowed": false
                }
            ]
        },
        {
            "id": "d8dabd4d-b7c9-4a08-8205-9f42baf23b67",
            "alias": "first broker login",
            "description": "Actions taken after first broker login with identity provider account, which is not yet linked to any Keycloak account",
            "providerId": "basic-flow",
            "topLevel": true,
            "builtIn": true,
            "authenticationExecutions": [
                {
                    "authenticatorConfig": "review profile config",
                    "authenticator": "idp-review-profile",
                    "authenticatorFlow": false,
                    "requirement": "REQUIRED",
                    "priority": 10,
                    "autheticatorFlow": false,
                    "userSetupAllowed": false
                },
                {
                    "authenticatorFlow": true,
                    "requirement": "REQUIRED",
                    "priority": 20,
                    "autheticatorFlow": true,
                    "flowAlias": "User creation or linking",
                    "userSetupAllowed": false
                }
            ]
        },
        {
            "id": "457a99e6-1861-428e-bb93-ed478eb1f28e",
            "alias": "forms",
            "description": "Username, password, otp and other auth forms.",
            "providerId": "basic-flow",
            "topLevel": false,
            "builtIn": true,
            "authenticationExecutions": [
                {
                    "authenticator": "auth-username-password-form",
                    "authenticatorFlow": false,
                    "requirement": "REQUIRED",
                    "priority": 10,
                    "autheticatorFlow": false,
                    "userSetupAllowed": false
                },
                {
                    "authenticatorFlow": true,
                    "requirement": "CONDITIONAL",
                    "priority": 20,
                    "autheticatorFlow": true,
                    "flowAlias": "Browser - Conditional OTP",
                    "userSetupAllowed": false
                }
            ]
        },
        {
            "id": "e4055a73-fa5d-49ad-a53a-4f704c829d34",
            "alias": "http challenge",
            "description": "An authentication flow based on challenge-response HTTP Authentication Schemes",
            "providerId": "basic-flow",
            "topLevel": true,
            "builtIn": true,
            "authenticationExecutions": [
                {
                    "authenticator": "no-cookie-redirect",
                    "authenticatorFlow": false,
                    "requirement": "REQUIRED",
                    "priority": 10,
                    "autheticatorFlow": false,
                    "userSetupAllowed": false
                },
                {
                    "authenticatorFlow": true,
                    "requirement": "REQUIRED",
                    "priority": 20,
                    "autheticatorFlow": true,
                    "flowAlias": "Authentication Options",
                    "userSetupAllowed": false
                }
            ]
        },
        {
            "id": "5647c36d-a98a-4c07-8bf2-64f312258072",
            "alias": "registration",
            "description": "registration flow",
            "providerId": "basic-flow",
            "topLevel": true,
            "builtIn": true,
            "authenticationExecutions": [
                {
                    "authenticator": "registration-page-form",
                    "authenticatorFlow": true,
                    "requirement": "REQUIRED",
                    "priority": 10,
                    "autheticatorFlow": true,
                    "flowAlias": "registration form",
                    "userSetupAllowed": false
                }
            ]
        },
        {
            "id": "4be0b510-b62f-4bb8-a3c6-89197db764e1",
            "alias": "registration form",
            "description": "registration form",
            "providerId": "form-flow",
            "topLevel": false,
            "builtIn": true,
            "authenticationExecutions": [
                {
                    "authenticator": "registration-user-creation",
                    "authenticatorFlow": false,
                    "requirement": "REQUIRED",
                    "priority": 20,
                    "autheticatorFlow": false,
                    "userSetupAllowed": false
                },
                {
                    "authenticator": "registration-profile-action",
                    "authenticatorFlow": false,
                    "requirement": "REQUIRED",
                    "priority": 40,
                    "autheticatorFlow": false,
                    "userSetupAllowed": false
                },
                {
                    "authenticator": "registration-password-action",
                    "authenticatorFlow": false,
                    "requirement": "REQUIRED",
                    "priority": 50,
                    "autheticatorFlow": false,
                    "userSetupAllowed": false
                },
                {
                    "authenticator": "registration-recaptcha-action",
                    "authenticatorFlow": false,
                    "requirement": "DISABLED",
                    "priority": 60,
                    "autheticatorFlow": false,
                    "userSetupAllowed": false
                }
            ]
        },
        {
            "id": "94885dc3-8758-42c6-9718-1289378e073b",
            "alias": "reset credentials",
            "description": "Reset credentials for a user if they forgot their password or something",
            "providerId": "basic-flow",
            "topLevel": true,
            "builtIn": true,
            "authenticationExecutions": [
                {
                    "authenticator": "reset-credentials-choose-user",
                    "authenticatorFlow": false,
                    "requirement": "REQUIRED",
                    "priority": 10,
                    "autheticatorFlow": false,
                    "userSetupAllowed": false
                },
                {
                    "authenticator": "reset-credential-email",
                    "authenticatorFlow": false,
                    "requirement": "REQUIRED",
                    "priority": 20,
                    "autheticatorFlow": false,
                    "userSetupAllowed": false
                },
                {
                    "authenticator": "reset-password",
                    "authenticatorFlow": false,
                    "requirement": "REQUIRED",
                    "priority": 30,
                    "autheticatorFlow": false,
                    "userSetupAllowed": false
                },
                {
                    "authenticatorFlow": true,
                    "requirement": "CONDITIONAL",
                    "priority": 40,
                    "autheticatorFlow": true,
                    "flowAlias": "Reset - Conditional OTP",
                    "userSetupAllowed": false
                }
            ]
        },
        {
            "id": "5d022370-9173-4940-91bd-7e9b087340ed",
            "alias": "saml ecp",
            "description": "SAML ECP Profile Authentication Flow",
            "providerId": "basic-flow",
            "topLevel": true,
            "builtIn": true,
            "authenticationExecutions": [
                {
                    "authenticator": "http-basic-authenticator",
                    "authenticatorFlow": false,
                    "requirement": "REQUIRED",
                    "priority": 10,
                    "autheticatorFlow": false,
                    "userSetupAllowed": false
                }
            ]
        }
    ],
    "authenticatorConfig": [
        {
            "id": "9aa87a18-00f6-49c4-9f47-a7eb3d1f4253",
            "alias": "create unique user config",
            "config": {
                "require.password.update.after.registration": "false"
            }
        },
        {
            "id": "a8deb912-ec49-4bc3-968c-5cbe9885a49d",
            "alias": "review profile config",
            "config": {
                "update.profile.on.first.login": "missing"
            }
        }
    ],
    "requiredActions": [
        {
            "alias": "CONFIGURE_TOTP",
            "name": "Configure OTP",
            "providerId": "CONFIGURE_TOTP",
            "enabled": true,
            "defaultAction": false,
            "priority": 10,
            "config": {}
        },
        {
            "alias": "terms_and_conditions",
            "name": "Terms and Conditions",
            "providerId": "terms_and_conditions",
            "enabled": false,
            "defaultAction": false,
            "priority": 20,
            "config": {}
        },
        {
            "alias": "UPDATE_PASSWORD",
            "name": "Update Password",
            "providerId": "UPDATE_PASSWORD",
            "enabled": true,
            "defaultAction": false,
            "priority": 30,
            "config": {}
        },
        {
            "alias": "UPDATE_PROFILE",
            "name": "Update Profile",
            "providerId": "UPDATE_PROFILE",
            "enabled": true,
            "defaultAction": false,
            "priority": 40,
            "config": {}
        },
        {
            "alias": "VERIFY_EMAIL",
            "name": "Verify Email",
            "providerId": "VERIFY_EMAIL",
            "enabled": true,
            "defaultAction": false,
            "priority": 50,
            "config": {}
        },
        {
            "alias": "delete_account",
            "name": "Delete Account",
            "providerId": "delete_account",
            "enabled": false,
            "defaultAction": false,
            "priority": 60,
            "config": {}
        },
        {
            "alias": "webauthn-register",
            "name": "Webauthn Register",
            "providerId": "webauthn-register",
            "enabled": true,
            "defaultAction": false,
            "priority": 70,
            "config": {}
        },
        {
            "alias": "webauthn-register-passwordless",
            "name": "Webauthn Register Passwordless",
            "providerId": "webauthn-register-passwordless",
            "enabled": true,
            "defaultAction": false,
            "priority": 80,
            "config": {}
        },
        {
            "alias": "update_user_locale",
            "name": "Update User Locale",
            "providerId": "update_user_locale",
            "enabled": true,
            "defaultAction": false,
            "priority": 1000,
            "config": {}
        }
    ],
    "browserFlow": "browser",
    "registrationFlow": "registration",
    "directGrantFlow": "direct grant",
    "resetCredentialsFlow": "reset credentials",
    "clientAuthenticationFlow": "clients",
    "dockerAuthenticationFlow": "docker auth",
    "attributes": {
        "cibaBackchannelTokenDeliveryMode": "poll",
        "cibaAuthRequestedUserHint": "login_hint",
        "oauth2DevicePollingInterval": "5",
        "clientOfflineSessionMaxLifespan": "0",
        "clientSessionIdleTimeout": "0",
        "clientOfflineSessionIdleTimeout": "0",
        "cibaInterval": "5",
        "realmReusableOtpCode": "false",
        "cibaExpiresIn": "120",
        "oauth2DeviceCodeLifespan": "600",
        "parRequestUriLifespan": "60",
        "clientSessionMaxLifespan": "0",
        "frontendUrl": "",
        "acr.loa.map": "{}"
    },
    "keycloakVersion": "20.0.1",
    "userManagedAccessAllowed": true,
    "clientProfiles": {
        "profiles": []
    },
    "clientPolicies": {
        "policies": []
    },
    "users": [
        {
            "id": "71e52ceb-4cb2-49dd-9b47-7f0dc8c0640d",
            "createdTimestamp": 1674726342257,
            "username": "elysee",
            "enabled": true,
            "totp": false,
            "emailVerified": false,
            "firstName": "Elysee",
            "lastName": "r",
            "email": "e@reclus.fr",
            "credentials": [
                {
                    "id": "d4af0b4f-2dc0-4f46-905c-5bb4c9f9954c",
                    "type": "password",
                    "userLabel": "My password",
                    "createdDate": 1674726963260,
                    "secretData": "{\"value\":\"piQgbLhEhLjM4NTkOVTrG7j0FYbampY8BsPVGlKoAaxOZ1XOFL7CRKKbzpsAP/V6qqrFe3dE3Bi41sspP0v5LQ==\",\"salt\":\"KqxmNsx9AMBcEg2/2H9Gyg==\",\"additionalParameters\":{}}",
                    "credentialData": "{\"hashIterations\":27500,\"algorithm\":\"pbkdf2-sha256\",\"additionalParameters\":{}}"
                }
            ],
            "disableableCredentialTypes": [],
            "requiredActions": [],
            "realmRoles": [
                "default-roles-geovisio"
            ],
            "notBefore": 0,
            "groups": []
        }
    ]
}